{
    "pageVO": {
        "curPage": 1,
        "endIndex": 10,
        "orderBy": null,
        "pageSize": 10,
        "startIndex": 0,
        "totalPages": 422,
        "totalRows": 4220
    },
    "rows": [{
        "author": null,
        "belongOrg": null,
        "checkInTime": null,
        "checkOutTime": null,
        "checkStatus": null,
        "content": "<p>本文针对2015数据库年度发展进行了盘点。欢迎大家学习</p>",
        "copyID": null,
        "createBy": "liubo791",
        "createOrg": "791",
        "createTime": "2016-01-13 15:19:10",
        "deadTime": null,
        "directID": null,
        "flag": null,
        "fullname": "刘波",
        "isClose": null,
        "isCopy": null,
        "isFinish": null,
        "isNew": 0,
        "knlDimension": 1,
        "knlID": 1000807,
        "knlLevel": null,
        "knlLevelName": null,
        "knlModule": "2",
        "knlModuleName": "技术文档",
        "knlProvKey": "791",
        "knlProvName": "江西",
        "knlRemark": null,
        "knlResourceType": 64,
        "knlResourceTypeName": "数据库",
        "knlSource": 1,
        "knlSourceName": "文档",
        "knlSysType": 55,
        "knlSysTypeName": "其他",
        "knlTask": null,
        "knlType": 6,
        "knlTypeName": "行业知识类",
        "lastCheckTime": "2016-01-13 15:17:50",
        "lastChecker": null,
        "lastUpTime": "2016-01-13 15:19:10",
        "lastUpdateBy": null,
        "lastVisitTime": null,
        "lastVisitor": null,
        "originID": null,
        "rankCount": 0,
        "replayFlag": null,
        "score": 0,
        "searchScore": 0,
        "status": 2,
        "tag": null,
        "timeoutCount": null,
        "title": "2015数据库年度盘点",
        "user": null,
        "visitCount": 0
    }, {
        "author": null,
        "belongOrg": null,
        "checkInTime": null,
        "checkOutTime": null,
        "checkStatus": null,
        "content": "<span style=\"color: rgb(0, 0, 0);text-align: left;float: none;background-color: rgb(247, 247, 247);\"",
        "copyID": null,
        "createBy": "liubo791",
        "createOrg": "791",
        "createTime": "2016-01-13 15:15:29",
        "deadTime": null,
        "directID": null,
        "flag": null,
        "fullname": "刘波",
        "isClose": null,
        "isCopy": null,
        "isFinish": null,
        "isNew": 0,
        "knlDimension": 1,
        "knlID": 1000806,
        "knlLevel": null,
        "knlLevelName": null,
        "knlModule": "2",
        "knlModuleName": "技术文档",
        "knlProvKey": "791",
        "knlProvName": "江西",
        "knlRemark": null,
        "knlResourceType": 184,
        "knlResourceTypeName": "其他",
        "knlSource": 1,
        "knlSourceName": "文档",
        "knlSysType": 46,
        "knlSysTypeName": "其他",
        "knlTask": null,
        "knlType": 6,
        "knlTypeName": "行业知识类",
        "lastCheckTime": "2016-01-13 15:14:09",
        "lastChecker": null,
        "lastUpTime": "2016-01-13 15:15:29",
        "lastUpdateBy": null,
        "lastVisitTime": null,
        "lastVisitor": null,
        "originID": null,
        "rankCount": 0,
        "replayFlag": null,
        "score": 0,
        "searchScore": 0,
        "status": 2,
        "tag": null,
        "timeoutCount": null,
        "title": "微服务入门之Node.js + Docker + NoSQL",
        "user": null,
        "visitCount": 0
    }, {
        "author": null,
        "belongOrg": null,
        "checkInTime": null,
        "checkOutTime": null,
        "checkStatus": null,
        "content": "<p><b>用研方法之凯利方格技术：</b><br/></p><p>一、用户的需求：</p><p>已知的需求、未被满足的需求、未知的需求</p><p>二、凯利方格技术：</p><p>人物简介</p><",
        "copyID": null,
        "createBy": "chencz",
        "createOrg": "004",
        "createTime": "2016-01-13 11:29:46",
        "deadTime": null,
        "directID": null,
        "flag": null,
        "fullname": "陈超智",
        "isClose": null,
        "isCopy": null,
        "isFinish": null,
        "isNew": 0,
        "knlDimension": 1,
        "knlID": 1000805,
        "knlLevel": null,
        "knlLevelName": null,
        "knlModule": "2",
        "knlModuleName": "技术文档",
        "knlProvKey": "004",
        "knlProvName": "全网监控中心",
        "knlRemark": null,
        "knlResourceType": 184,
        "knlResourceTypeName": "其他",
        "knlSource": 5,
        "knlSourceName": "培训获得",
        "knlSysType": 118,
        "knlSysTypeName": "其他系统",
        "knlTask": null,
        "knlType": 6,
        "knlTypeName": "行业知识类",
        "lastCheckTime": "2016-01-13 11:28:27",
        "lastChecker": null,
        "lastUpTime": "2016-01-13 11:29:46",
        "lastUpdateBy": null,
        "lastVisitTime": null,
        "lastVisitor": null,
        "originID": null,
        "rankCount": 0,
        "replayFlag": null,
        "score": 0,
        "searchScore": 0,
        "status": 2,
        "tag": null,
        "timeoutCount": null,
        "title": "用研方法之凯利方格技术",
        "user": null,
        "visitCount": 0
    }, {
        "author": null,
        "belongOrg": null,
        "checkInTime": null,
        "checkOutTime": null,
        "checkStatus": null,
        "content": "<p><b>Docker容器技术简介：</b><br/></p><p>Docker 是下一代云计算的主流趋势。本次分享主要是介绍DOCKER技术解决了什么问题,DOCKER技术基础,DOCKER 重要",
        "copyID": null,
        "createBy": "chencz",
        "createOrg": "004",
        "createTime": "2016-01-13 10:39:58",
        "deadTime": null,
        "directID": null,
        "flag": null,
        "fullname": "陈超智",
        "isClose": null,
        "isCopy": null,
        "isFinish": null,
        "isNew": 0,
        "knlDimension": 1,
        "knlID": 1000804,
        "knlLevel": null,
        "knlLevelName": null,
        "knlModule": "2",
        "knlModuleName": "技术文档",
        "knlProvKey": "004",
        "knlProvName": "全网监控中心",
        "knlRemark": null,
        "knlResourceType": 184,
        "knlResourceTypeName": "其他",
        "knlSource": 5,
        "knlSourceName": "培训获得",
        "knlSysType": 118,
        "knlSysTypeName": "其他系统",
        "knlTask": null,
        "knlType": 6,
        "knlTypeName": "行业知识类",
        "lastCheckTime": "2016-01-13 10:38:38",
        "lastChecker": null,
        "lastUpTime": "2016-01-13 10:39:58",
        "lastUpdateBy": null,
        "lastVisitTime": null,
        "lastVisitor": null,
        "originID": null,
        "rankCount": 0,
        "replayFlag": null,
        "score": 0,
        "searchScore": 0,
        "status": 2,
        "tag": null,
        "timeoutCount": null,
        "title": "Docker容器技术简介",
        "user": null,
        "visitCount": 0
    }, {
        "author": null,
        "belongOrg": null,
        "checkInTime": null,
        "checkOutTime": null,
        "checkStatus": null,
        "content": "<p style=\"text-align: left;direction: ltr;\"><b><span style=\"color: black;\">Hybrid</span><span style=",
        "copyID": null,
        "createBy": "chencz",
        "createOrg": "004",
        "createTime": "2016-01-13 10:18:29",
        "deadTime": null,
        "directID": null,
        "flag": null,
        "fullname": "陈超智",
        "isClose": null,
        "isCopy": null,
        "isFinish": null,
        "isNew": 0,
        "knlDimension": 1,
        "knlID": 1000803,
        "knlLevel": null,
        "knlLevelName": null,
        "knlModule": "2",
        "knlModuleName": "技术文档",
        "knlProvKey": "004",
        "knlProvName": "全网监控中心",
        "knlRemark": null,
        "knlResourceType": 184,
        "knlResourceTypeName": "其他",
        "knlSource": 5,
        "knlSourceName": "培训获得",
        "knlSysType": 118,
        "knlSysTypeName": "其他系统",
        "knlTask": null,
        "knlType": 6,
        "knlTypeName": "行业知识类",
        "lastCheckTime": "2016-01-13 10:17:09",
        "lastChecker": null,
        "lastUpTime": "2016-01-13 10:18:29",
        "lastUpdateBy": null,
        "lastVisitTime": null,
        "lastVisitor": null,
        "originID": null,
        "rankCount": 0,
        "replayFlag": null,
        "score": 0,
        "searchScore": 0,
        "status": 2,
        "tag": null,
        "timeoutCount": null,
        "title": "Hybrid APP 简介与实践",
        "user": null,
        "visitCount": 0
    }, {
        "author": null,
        "belongOrg": null,
        "checkInTime": null,
        "checkOutTime": null,
        "checkStatus": null,
        "content": "<div style=\"text-align: left;direction: ltr;\"><span style=\"color: black;\"><b>BOMC简介：</b></span></div",
        "copyID": null,
        "createBy": "chencz",
        "createOrg": "004",
        "createTime": "2016-01-13 10:09:18",
        "deadTime": null,
        "directID": null,
        "flag": null,
        "fullname": "陈超智",
        "isClose": null,
        "isCopy": null,
        "isFinish": null,
        "isNew": 0,
        "knlDimension": 1,
        "knlID": 1000802,
        "knlLevel": null,
        "knlLevelName": null,
        "knlModule": "2",
        "knlModuleName": "技术文档",
        "knlProvKey": "004",
        "knlProvName": "全网监控中心",
        "knlRemark": null,
        "knlResourceType": 31,
        "knlResourceTypeName": "BOMC系统",
        "knlSource": 5,
        "knlSourceName": "培训获得",
        "knlSysType": 147,
        "knlSysTypeName": "集中控制中心",
        "knlTask": null,
        "knlType": 6,
        "knlTypeName": "行业知识类",
        "lastCheckTime": "2016-01-13 10:07:58",
        "lastChecker": null,
        "lastUpTime": "2016-01-13 10:09:18",
        "lastUpdateBy": null,
        "lastVisitTime": "2016-01-13 15:01:55",
        "lastVisitor": "liubo791",
        "originID": null,
        "rankCount": 0,
        "replayFlag": null,
        "score": 0,
        "searchScore": 0,
        "status": 2,
        "tag": null,
        "timeoutCount": null,
        "title": "BOMC简介",
        "user": null,
        "visitCount": 1
    }, {
        "author": null,
        "belongOrg": null,
        "checkInTime": null,
        "checkOutTime": null,
        "checkStatus": null,
        "content": "<p>摘要：近年来电信企业中，云计算越来越成为关注热点，特别是在电信企业追求低成本化、集中化、全网化运营的背景下，云计算技术已经成为必然和基本条件。本文介绍了电信企业对云计算，特别是数据库云的需求及实",
        "copyID": null,
        "createBy": "chencz",
        "createOrg": "004",
        "createTime": "2016-01-12 16:53:08",
        "deadTime": null,
        "directID": null,
        "flag": null,
        "fullname": "陈超智",
        "isClose": null,
        "isCopy": null,
        "isFinish": null,
        "isNew": 0,
        "knlDimension": 1,
        "knlID": 1000801,
        "knlLevel": null,
        "knlLevelName": null,
        "knlModule": "2",
        "knlModuleName": "技术文档",
        "knlProvKey": "004",
        "knlProvName": "全网监控中心",
        "knlRemark": null,
        "knlResourceType": 64,
        "knlResourceTypeName": "数据库",
        "knlSource": 2,
        "knlSourceName": "日常维护",
        "knlSysType": 118,
        "knlSysTypeName": "其他系统",
        "knlTask": null,
        "knlType": 2,
        "knlTypeName": "日常运维类",
        "lastCheckTime": "2016-01-12 16:51:48",
        "lastChecker": null,
        "lastUpTime": "2016-01-12 16:53:08",
        "lastUpdateBy": null,
        "lastVisitTime": null,
        "lastVisitor": null,
        "originID": null,
        "rankCount": 0,
        "replayFlag": null,
        "score": 0,
        "searchScore": 0,
        "status": 2,
        "tag": null,
        "timeoutCount": null,
        "title": "企业级数据库云平台的建设与运维方案",
        "user": null,
        "visitCount": 0
    }, {
        "author": null,
        "belongOrg": null,
        "checkInTime": null,
        "checkOutTime": null,
        "checkStatus": null,
        "content": "<p><span style=\"color: rgb(85, 85, 85);float: none;background-color: rgb(255, 255, 255);\">\u00A0 \u00A0 山西移动业支",
        "copyID": null,
        "createBy": "rongjianjun351",
        "createOrg": "351",
        "createTime": "2016-01-12 15:45:02",
        "deadTime": null,
        "directID": null,
        "flag": null,
        "fullname": "荣建军",
        "isClose": null,
        "isCopy": null,
        "isFinish": null,
        "isNew": 0,
        "knlDimension": 1,
        "knlID": 1000799,
        "knlLevel": null,
        "knlLevelName": null,
        "knlModule": "2",
        "knlModuleName": "技术文档",
        "knlProvKey": "351",
        "knlProvName": "山西",
        "knlRemark": null,
        "knlResourceType": 80,
        "knlResourceTypeName": "安全设备",
        "knlSource": 3,
        "knlSourceName": "故障告警",
        "knlSysType": 118,
        "knlSysTypeName": "其他系统",
        "knlTask": null,
        "knlType": 3,
        "knlTypeName": "故障处理类",
        "lastCheckTime": "2016-01-12 15:43:42",
        "lastChecker": null,
        "lastUpTime": "2016-01-12 15:45:02",
        "lastUpdateBy": null,
        "lastVisitTime": "2016-01-12 15:51:01",
        "lastVisitor": "9990878591",
        "originID": null,
        "rankCount": 0,
        "replayFlag": null,
        "score": 0,
        "searchScore": 0,
        "status": 2,
        "tag": null,
        "timeoutCount": null,
        "title": "山西移动业支部ADS设备应急处置文档",
        "user": null,
        "visitCount": 1
    }, {
        "author": null,
        "belongOrg": null,
        "checkInTime": null,
        "checkOutTime": null,
        "checkStatus": null,
        "content": "<p>\u00A0 \u00A0 山西移动业支部的互联网出口部署了WAF（web应用防火墙）设备，该设备能够对常见的互联网攻击进行自动防护，因设备串联在互联网链路上，设备故障可能导致web系统的访问异常。为提高处置及时性",
        "copyID": null,
        "createBy": "rongjianjun351",
        "createOrg": "351",
        "createTime": "2016-01-12 15:43:23",
        "deadTime": null,
        "directID": null,
        "flag": null,
        "fullname": "荣建军",
        "isClose": null,
        "isCopy": null,
        "isFinish": null,
        "isNew": 0,
        "knlDimension": 1,
        "knlID": 1000798,
        "knlLevel": null,
        "knlLevelName": null,
        "knlModule": "2",
        "knlModuleName": "技术文档",
        "knlProvKey": "351",
        "knlProvName": "山西",
        "knlRemark": null,
        "knlResourceType": 80,
        "knlResourceTypeName": "安全设备",
        "knlSource": 3,
        "knlSourceName": "故障告警",
        "knlSysType": 118,
        "knlSysTypeName": "其他系统",
        "knlTask": null,
        "knlType": 3,
        "knlTypeName": "故障处理类",
        "lastCheckTime": "2016-01-12 15:42:03",
        "lastChecker": null,
        "lastUpTime": "2016-01-12 15:43:23",
        "lastUpdateBy": null,
        "lastVisitTime": "2016-01-12 15:51:01",
        "lastVisitor": "9990878591",
        "originID": null,
        "rankCount": 0,
        "replayFlag": null,
        "score": 0,
        "searchScore": 0,
        "status": 2,
        "tag": null,
        "timeoutCount": null,
        "title": "山西移动业支部WAF设备应急处置文档",
        "user": null,
        "visitCount": 1
    }, {
        "author": null,
        "belongOrg": null,
        "checkInTime": null,
        "checkOutTime": null,
        "checkStatus": null,
        "content": "<p><b><span>利用</span></b><b><span>LVS+Keepalived </span></b><b><span>实现高性能高可用负载均衡</span></b><b><span",
        "copyID": null,
        "createBy": "liwx",
        "createOrg": "004",
        "createTime": "2016-01-11 17:44:06",
        "deadTime": null,
        "directID": null,
        "flag": null,
        "fullname": "李雯馨",
        "isClose": null,
        "isCopy": null,
        "isFinish": null,
        "isNew": 0,
        "knlDimension": 1,
        "knlID": 1000797,
        "knlLevel": null,
        "knlLevelName": null,
        "knlModule": "2",
        "knlModuleName": "技术文档",
        "knlProvKey": "004",
        "knlProvName": "全网监控中心",
        "knlRemark": null,
        "knlResourceType": 141,
        "knlResourceTypeName": "其他系统",
        "knlSource": 6,
        "knlSourceName": "其他",
        "knlSysType": 118,
        "knlSysTypeName": "其他系统",
        "knlTask": null,
        "knlType": 2,
        "knlTypeName": "日常运维类",
        "lastCheckTime": "2016-01-11 17:32:10",
        "lastChecker": null,
        "lastUpTime": "2016-01-11 17:44:06",
        "lastUpdateBy": null,
        "lastVisitTime": "2016-01-13 10:49:42",
        "lastVisitor": "zhangyuanzhi898",
        "originID": null,
        "rankCount": 0,
        "replayFlag": null,
        "score": 0,
        "searchScore": 0,
        "status": 2,
        "tag": null,
        "timeoutCount": null,
        "title": "利用LVS+Keepalived 实现高性能高可用负载均衡",
        "user": null,
        "visitCount": 3
    }]
}