{
    "pageVO": {
        "curPage": 2,
        "endIndex": 20,
        "orderBy": null,
        "pageSize": 10,
        "startIndex": 10,
        "totalPages": 2,
        "totalRows": 20
    },
    "rows": [{
        "belongOrg": null,
        "content": "<p><span style=\"color: rgb(85, 85, 85);text-align: left;background-color: rgb(255, 255, 255);float: ",
        "copyID": null,
        "createBy": "guoqiutong431",
        "createOrg": "431",
        "createTime": "2016-01-12 16:00:20",
        "deadTime": null,
        "dn": null,
        "evenID": null,
        "flag": null,
        "fullname": "郭秋彤",
        "handInFlag": null,
        "isClose": null,
        "isCopy": null,
        "isFinish": null,
        "isNew": 0,
        "knlDimension": 1,
        "knlID": 1001200,
        "knlLevel": null,
        "knlLevelName": null,
        "knlModule": "0",
        "knlModuleName": "经验案例",
        "knlProvKey": "431",
        "knlProvName": "吉林",
        "knlRemark": null,
        "knlResourceType": 28,
        "knlResourceTypeName": "CRM系统",
        "knlSource": 4,
        "knlSourceName": "客户投诉",
        "knlSysType": 36,
        "knlSysTypeName": "融合计费",
        "knlTask": null,
        "knlType": 2,
        "knlTypeName": "日常运维类",
        "lastCheckTime": "2016-01-12 15:59:00",
        "lastChecker": null,
        "lastUpTime": "2016-01-12 16:00:20",
        "lastUpdateBy": null,
        "lastVisitTime": "2016-01-13 15:25:13",
        "lastVisitor": "yangjingyuan431",
        "originID": null,
        "problemID": null,
        "rankCount": 0,
        "replayFlag": 1,
        "score": 0,
        "searchScore": 0,
        "securityLevel": 1,
        "status": 2,
        "tag": null,
        "timeoutCount": null,
        "title": "用户在长春打集团号码按照主叫0.6元/分钟收取了费用，要求查询原因",
        "url": null,
        "user": null,
        "visitCount": 1
    }, {
        "belongOrg": null,
        "content": "<p><span style=\"color: rgb(85, 85, 85);text-align: left;background-color: rgb(255, 255, 255);float: ",
        "copyID": null,
        "createBy": "guoqiutong431",
        "createOrg": "431",
        "createTime": "2016-01-12 15:54:15",
        "deadTime": null,
        "dn": null,
        "evenID": null,
        "flag": null,
        "fullname": "郭秋彤",
        "handInFlag": null,
        "isClose": null,
        "isCopy": null,
        "isFinish": null,
        "isNew": 0,
        "knlDimension": 1,
        "knlID": 1001199,
        "knlLevel": null,
        "knlLevelName": null,
        "knlModule": "0",
        "knlModuleName": "经验案例",
        "knlProvKey": "431",
        "knlProvName": "吉林",
        "knlRemark": null,
        "knlResourceType": 27,
        "knlResourceTypeName": "BOSS系统",
        "knlSource": 4,
        "knlSourceName": "客户投诉",
        "knlSysType": 36,
        "knlSysTypeName": "融合计费",
        "knlTask": null,
        "knlType": 2,
        "knlTypeName": "日常运维类",
        "lastCheckTime": "2016-01-12 15:52:55",
        "lastChecker": null,
        "lastUpTime": "2016-01-12 15:54:15",
        "lastUpdateBy": null,
        "lastVisitTime": "2016-01-13 15:25:09",
        "lastVisitor": "yangjingyuan431",
        "originID": null,
        "problemID": null,
        "rankCount": 0,
        "replayFlag": 1,
        "score": 0,
        "searchScore": 0,
        "securityLevel": 1,
        "status": 2,
        "tag": null,
        "timeoutCount": null,
        "title": "用户反映手机上网流量超出后，没有数据流量提醒",
        "url": null,
        "user": null,
        "visitCount": 1
    }, {
        "belongOrg": null,
        "content": "<p><span style=\"color: rgb(85, 85, 85);text-align: left;background-color: rgb(255, 255, 255);float: ",
        "copyID": null,
        "createBy": "guoqiutong431",
        "createOrg": "431",
        "createTime": "2016-01-12 15:52:48",
        "deadTime": null,
        "dn": null,
        "evenID": null,
        "flag": null,
        "fullname": "郭秋彤",
        "handInFlag": null,
        "isClose": null,
        "isCopy": null,
        "isFinish": null,
        "isNew": 0,
        "knlDimension": 1,
        "knlID": 1001198,
        "knlLevel": null,
        "knlLevelName": null,
        "knlModule": "0",
        "knlModuleName": "经验案例",
        "knlProvKey": "431",
        "knlProvName": "吉林",
        "knlRemark": null,
        "knlResourceType": 27,
        "knlResourceTypeName": "BOSS系统",
        "knlSource": 4,
        "knlSourceName": "客户投诉",
        "knlSysType": 36,
        "knlSysTypeName": "融合计费",
        "knlTask": null,
        "knlType": 2,
        "knlTypeName": "日常运维类",
        "lastCheckTime": "2016-01-12 15:51:28",
        "lastChecker": null,
        "lastUpTime": "2016-01-12 15:52:48",
        "lastUpdateBy": null,
        "lastVisitTime": "2016-01-13 15:25:16",
        "lastVisitor": "yangjingyuan431",
        "originID": null,
        "problemID": null,
        "rankCount": 0,
        "replayFlag": 1,
        "score": 0,
        "searchScore": 0,
        "securityLevel": 1,
        "status": 2,
        "tag": null,
        "timeoutCount": null,
        "title": "用户查询流量剩余后对结果有异议，要求恢复剩余流量",
        "url": null,
        "user": null,
        "visitCount": 2
    }, {
        "belongOrg": null,
        "content": "<p><span style=\"color: rgb(85, 85, 85);text-align: left;background-color: rgb(255, 255, 255);float: ",
        "copyID": null,
        "createBy": "guoqiutong431",
        "createOrg": "431",
        "createTime": "2016-01-12 15:51:39",
        "deadTime": null,
        "dn": null,
        "evenID": null,
        "flag": null,
        "fullname": "郭秋彤",
        "handInFlag": null,
        "isClose": null,
        "isCopy": null,
        "isFinish": null,
        "isNew": 0,
        "knlDimension": 1,
        "knlID": 1001197,
        "knlLevel": null,
        "knlLevelName": null,
        "knlModule": "0",
        "knlModuleName": "经验案例",
        "knlProvKey": "431",
        "knlProvName": "吉林",
        "knlRemark": null,
        "knlResourceType": 27,
        "knlResourceTypeName": "BOSS系统",
        "knlSource": 4,
        "knlSourceName": "客户投诉",
        "knlSysType": 36,
        "knlSysTypeName": "融合计费",
        "knlTask": null,
        "knlType": 2,
        "knlTypeName": "日常运维类",
        "lastCheckTime": "2016-01-12 15:50:19",
        "lastChecker": null,
        "lastUpTime": "2016-01-12 15:51:39",
        "lastUpdateBy": null,
        "lastVisitTime": null,
        "lastVisitor": null,
        "originID": null,
        "problemID": null,
        "rankCount": 0,
        "replayFlag": 1,
        "score": 0,
        "searchScore": 0,
        "securityLevel": 1,
        "status": 2,
        "tag": null,
        "timeoutCount": null,
        "title": "用户查询余额与现实不符，需要解释原因",
        "url": null,
        "user": null,
        "visitCount": 0
    }, {
        "belongOrg": null,
        "content": "<p><span style=\"color: rgb(85, 85, 85);text-align: left;background-color: rgb(255, 255, 255);float: ",
        "copyID": null,
        "createBy": "guoqiutong431",
        "createOrg": "431",
        "createTime": "2016-01-12 15:50:52",
        "deadTime": null,
        "dn": null,
        "evenID": null,
        "flag": null,
        "fullname": "郭秋彤",
        "handInFlag": null,
        "isClose": null,
        "isCopy": null,
        "isFinish": null,
        "isNew": 0,
        "knlDimension": 1,
        "knlID": 1001196,
        "knlLevel": null,
        "knlLevelName": null,
        "knlModule": "0",
        "knlModuleName": "经验案例",
        "knlProvKey": "431",
        "knlProvName": "吉林",
        "knlRemark": null,
        "knlResourceType": 27,
        "knlResourceTypeName": "BOSS系统",
        "knlSource": 4,
        "knlSourceName": "客户投诉",
        "knlSysType": 38,
        "knlSysTypeName": "综合结算",
        "knlTask": null,
        "knlType": 2,
        "knlTypeName": "日常运维类",
        "lastCheckTime": "2016-01-12 15:49:32",
        "lastChecker": null,
        "lastUpTime": "2016-01-12 15:50:52",
        "lastUpdateBy": null,
        "lastVisitTime": "2016-01-12 15:51:04",
        "lastVisitor": "9990878591",
        "originID": null,
        "problemID": null,
        "rankCount": 0,
        "replayFlag": 1,
        "score": 0,
        "searchScore": 0,
        "securityLevel": 1,
        "status": 2,
        "tag": null,
        "timeoutCount": null,
        "title": "套餐剩余流量未结转，用户不认可",
        "url": null,
        "user": null,
        "visitCount": 1
    }, {
        "belongOrg": null,
        "content": "<p>1. 告警示例：</p><p>主机qmweb11(web应用服务器311)（133.96.42.11）的weblogic中间件crmAdminSrc可用线程数过低。</p><p>2.\u00A0\u00A0\u00A0\u00A0\u00A0\u00A0",
        "copyID": null,
        "createBy": "wangyinhui-hb311",
        "createOrg": "311",
        "createTime": "2015-12-31 12:58:04",
        "deadTime": null,
        "dn": null,
        "evenID": null,
        "flag": null,
        "fullname": "王引辉",
        "handInFlag": null,
        "isClose": null,
        "isCopy": null,
        "isFinish": null,
        "isNew": 0,
        "knlDimension": 1,
        "knlID": 1001195,
        "knlLevel": null,
        "knlLevelName": null,
        "knlModule": "0",
        "knlModuleName": "经验案例",
        "knlProvKey": "311",
        "knlProvName": "河北",
        "knlRemark": null,
        "knlResourceType": 185,
        "knlResourceTypeName": "应用服务器",
        "knlSource": 2,
        "knlSourceName": "日常维护",
        "knlSysType": 55,
        "knlSysTypeName": "其他",
        "knlTask": null,
        "knlType": 2,
        "knlTypeName": "日常运维类",
        "lastCheckTime": "2015-12-31 12:56:42",
        "lastChecker": null,
        "lastUpTime": "2015-12-31 12:58:04",
        "lastUpdateBy": null,
        "lastVisitTime": "2016-01-05 09:54:47",
        "lastVisitor": "liwx",
        "originID": null,
        "problemID": null,
        "rankCount": 5,
        "replayFlag": 1,
        "score": 4.7,
        "searchScore": 0,
        "securityLevel": 1,
        "status": 2,
        "tag": null,
        "timeoutCount": null,
        "title": "weblogic中间件可用线程数过低的维护处理方法",
        "url": null,
        "user": null,
        "visitCount": 7
    }, {
        "belongOrg": null,
        "content": "<p>----仓库IP<br/>   133.96.72.51  --管理结点<br/>   133.96.72.93  --调度结点<br/>   133.96.72.95  --调度结点</p><",
        "copyID": null,
        "createBy": "wangyinhui-hb311",
        "createOrg": "311",
        "createTime": "2015-12-31 12:57:02",
        "deadTime": null,
        "dn": null,
        "evenID": null,
        "flag": null,
        "fullname": "王引辉",
        "handInFlag": null,
        "isClose": null,
        "isCopy": null,
        "isFinish": null,
        "isNew": 0,
        "knlDimension": 1,
        "knlID": 1001194,
        "knlLevel": null,
        "knlLevelName": null,
        "knlModule": "0",
        "knlModuleName": "经验案例",
        "knlProvKey": "311",
        "knlProvName": "河北",
        "knlRemark": null,
        "knlResourceType": 64,
        "knlResourceTypeName": "数据库",
        "knlSource": 2,
        "knlSourceName": "日常维护",
        "knlSysType": 118,
        "knlSysTypeName": "其他系统",
        "knlTask": null,
        "knlType": 2,
        "knlTypeName": "日常运维类",
        "lastCheckTime": "2015-12-31 12:55:40",
        "lastChecker": null,
        "lastUpTime": "2015-12-31 12:57:02",
        "lastUpdateBy": null,
        "lastVisitTime": "2016-01-11 15:33:12",
        "lastVisitor": "9991122591",
        "originID": null,
        "problemID": null,
        "rankCount": 5,
        "replayFlag": 1,
        "score": 4.6,
        "searchScore": 0,
        "securityLevel": 1,
        "status": 2,
        "tag": null,
        "timeoutCount": null,
        "title": "SUSE下DB2数据库重启操作步骤",
        "url": null,
        "user": null,
        "visitCount": 6
    }, {
        "belongOrg": null,
        "content": "<p>--modify 20140227                    <br/>---仓库IP           <br/>   133.96.71.1   --管理结点         ",
        "copyID": null,
        "createBy": "wangyinhui-hb311",
        "createOrg": "311",
        "createTime": "2015-12-31 12:55:53",
        "deadTime": null,
        "dn": null,
        "evenID": null,
        "flag": null,
        "fullname": "王引辉",
        "handInFlag": null,
        "isClose": null,
        "isCopy": null,
        "isFinish": null,
        "isNew": 0,
        "knlDimension": 1,
        "knlID": 1001193,
        "knlLevel": null,
        "knlLevelName": null,
        "knlModule": "0",
        "knlModuleName": "经验案例",
        "knlProvKey": "311",
        "knlProvName": "河北",
        "knlRemark": null,
        "knlResourceType": 63,
        "knlResourceTypeName": "操作系统",
        "knlSource": 2,
        "knlSourceName": "日常维护",
        "knlSysType": 118,
        "knlSysTypeName": "其他系统",
        "knlTask": null,
        "knlType": 2,
        "knlTypeName": "日常运维类",
        "lastCheckTime": "2015-12-31 12:54:31",
        "lastChecker": null,
        "lastUpTime": "2015-12-31 12:55:53",
        "lastUpdateBy": null,
        "lastVisitTime": "2015-12-31 13:38:18",
        "lastVisitor": "hanen-hb311",
        "originID": null,
        "problemID": null,
        "rankCount": 4,
        "replayFlag": 1,
        "score": 5,
        "searchScore": 0,
        "securityLevel": 1,
        "status": 2,
        "tag": null,
        "timeoutCount": null,
        "title": "小型机DB2数据库重启操作",
        "url": null,
        "user": null,
        "visitCount": 4
    }, {
        "belongOrg": null,
        "content": "<div style=\"color: rgb(0, 0, 0);\" align=\"left\">告警信息：主机kmint3(银行网厅自助中间件2)(133.96.63.33)的内存使用率过高,当前值95",
        "copyID": null,
        "createBy": "wangyinhui-hb311",
        "createOrg": "311",
        "createTime": "2015-12-31 12:54:16",
        "deadTime": null,
        "dn": null,
        "evenID": null,
        "flag": null,
        "fullname": "王引辉",
        "handInFlag": null,
        "isClose": null,
        "isCopy": null,
        "isFinish": null,
        "isNew": 0,
        "knlDimension": 1,
        "knlID": 1001192,
        "knlLevel": null,
        "knlLevelName": null,
        "knlModule": "0",
        "knlModuleName": "经验案例",
        "knlProvKey": "311",
        "knlProvName": "河北",
        "knlRemark": null,
        "knlResourceType": 65,
        "knlResourceTypeName": "交易中间件",
        "knlSource": 2,
        "knlSourceName": "日常维护",
        "knlSysType": 55,
        "knlSysTypeName": "其他",
        "knlTask": null,
        "knlType": 2,
        "knlTypeName": "日常运维类",
        "lastCheckTime": "2015-12-31 12:52:54",
        "lastChecker": null,
        "lastUpTime": "2015-12-31 12:54:16",
        "lastUpdateBy": null,
        "lastVisitTime": "2016-01-12 09:34:57",
        "lastVisitor": "liujun",
        "originID": null,
        "problemID": null,
        "rankCount": 5,
        "replayFlag": 1,
        "score": 4.8,
        "searchScore": 0,
        "securityLevel": 1,
        "status": 2,
        "tag": null,
        "timeoutCount": null,
        "title": "Tuxedo中间件主机的内存使用率过高的处理方法",
        "url": null,
        "user": null,
        "visitCount": 6
    }, {
        "belongOrg": null,
        "content": "<div><span style=\"color: rgb(0, 0, 0);float: none;\">在133.96.63.27中挂载133.96.44.13主机的/ftproot文件系统步骤如下：",
        "copyID": null,
        "createBy": "wangyinhui-hb311",
        "createOrg": "311",
        "createTime": "2015-12-31 12:52:36",
        "deadTime": null,
        "dn": null,
        "evenID": null,
        "flag": null,
        "fullname": "王引辉",
        "handInFlag": null,
        "isClose": null,
        "isCopy": null,
        "isFinish": null,
        "isNew": 0,
        "knlDimension": 1,
        "knlID": 1001191,
        "knlLevel": null,
        "knlLevelName": null,
        "knlModule": "0",
        "knlModuleName": "经验案例",
        "knlProvKey": "311",
        "knlProvName": "河北",
        "knlRemark": null,
        "knlResourceType": 71,
        "knlResourceTypeName": "小型机",
        "knlSource": 2,
        "knlSourceName": "日常维护",
        "knlSysType": 118,
        "knlSysTypeName": "其他系统",
        "knlTask": null,
        "knlType": 2,
        "knlTypeName": "日常运维类",
        "lastCheckTime": "2015-12-31 12:51:15",
        "lastChecker": null,
        "lastUpTime": "2015-12-31 12:52:36",
        "lastUpdateBy": null,
        "lastVisitTime": "2016-01-06 09:24:28",
        "lastVisitor": "liujinlin971",
        "originID": null,
        "problemID": null,
        "rankCount": 5,
        "replayFlag": 1,
        "score": 4.9,
        "searchScore": 0,
        "securityLevel": 1,
        "status": 2,
        "tag": null,
        "timeoutCount": null,
        "title": "挂载网络文件系统ftproot",
        "url": null,
        "user": null,
        "visitCount": 6
    }]
}