{
    "pageVO": {
        "curPage": 1,
        "endIndex": 10,
        "orderBy": null,
        "pageSize": 10,
        "startIndex": 0,
        "totalPages": 2,
        "totalRows": 20
    },
    "rows": [{
        "belongOrg": null,
        "content": "<p><span style=\"color: rgb(85, 85, 85);text-align: left;background-color: rgb(255, 255, 255);float: ",
        "copyID": null,
        "createBy": "guoqiutong431",
        "createOrg": "431",
        "createTime": "2016-01-12 16:26:11",
        "deadTime": null,
        "dn": null,
        "evenID": null,
        "flag": null,
        "fullname": "郭秋彤",
        "handInFlag": null,
        "isClose": null,
        "isCopy": null,
        "isFinish": null,
        "isNew": 0,
        "knlDimension": 1,
        "knlID": 1001210,
        "knlLevel": null,
        "knlLevelName": null,
        "knlModule": "0",
        "knlModuleName": "经验案例",
        "knlProvKey": "431",
        "knlProvName": "吉林",
        "knlRemark": null,
        "knlResourceType": 27,
        "knlResourceTypeName": "BOSS系统",
        "knlSource": 4,
        "knlSourceName": "客户投诉",
        "knlSysType": 36,
        "knlSysTypeName": "融合计费",
        "knlTask": null,
        "knlType": 2,
        "knlTypeName": "日常运维类",
        "lastCheckTime": "2016-01-12 16:24:51",
        "lastChecker": null,
        "lastUpTime": "2016-01-12 16:26:11",
        "lastUpdateBy": null,
        "lastVisitTime": "2016-01-13 15:24:42",
        "lastVisitor": "yangjingyuan431",
        "originID": null,
        "problemID": null,
        "rankCount": 0,
        "replayFlag": 1,
        "score": 0,
        "searchScore": 0,
        "securityLevel": 1,
        "status": 2,
        "tag": null,
        "timeoutCount": null,
        "title": "用户对拨打电话产生VPMN集团通话10.4元不认可",
        "url": null,
        "user": null,
        "visitCount": 1
    }, {
        "belongOrg": null,
        "content": "<p><span style=\"color: rgb(85, 85, 85);text-align: left;background-color: rgb(255, 255, 255);float: ",
        "copyID": null,
        "createBy": "guoqiutong431",
        "createOrg": "431",
        "createTime": "2016-01-12 16:25:38",
        "deadTime": null,
        "dn": null,
        "evenID": null,
        "flag": null,
        "fullname": "郭秋彤",
        "handInFlag": null,
        "isClose": null,
        "isCopy": null,
        "isFinish": null,
        "isNew": 0,
        "knlDimension": 1,
        "knlID": 1001209,
        "knlLevel": null,
        "knlLevelName": null,
        "knlModule": "0",
        "knlModuleName": "经验案例",
        "knlProvKey": "431",
        "knlProvName": "吉林",
        "knlRemark": null,
        "knlResourceType": 27,
        "knlResourceTypeName": "BOSS系统",
        "knlSource": 4,
        "knlSourceName": "客户投诉",
        "knlSysType": 36,
        "knlSysTypeName": "融合计费",
        "knlTask": null,
        "knlType": 2,
        "knlTypeName": "日常运维类",
        "lastCheckTime": "2016-01-12 16:24:18",
        "lastChecker": null,
        "lastUpTime": "2016-01-12 16:25:38",
        "lastUpdateBy": null,
        "lastVisitTime": null,
        "lastVisitor": null,
        "originID": null,
        "problemID": null,
        "rankCount": 0,
        "replayFlag": 1,
        "score": 0,
        "searchScore": 0,
        "securityLevel": 1,
        "status": 2,
        "tag": null,
        "timeoutCount": null,
        "title": "用户对产生的上网费用不认可，要求查询",
        "url": null,
        "user": null,
        "visitCount": 0
    }, {
        "belongOrg": null,
        "content": "<p><span style=\"color: rgb(85, 85, 85);text-align: left;background-color: rgb(255, 255, 255);float: ",
        "copyID": null,
        "createBy": "guoqiutong431",
        "createOrg": "431",
        "createTime": "2016-01-12 16:23:50",
        "deadTime": null,
        "dn": null,
        "evenID": null,
        "flag": null,
        "fullname": "郭秋彤",
        "handInFlag": null,
        "isClose": null,
        "isCopy": null,
        "isFinish": null,
        "isNew": 0,
        "knlDimension": 1,
        "knlID": 1001208,
        "knlLevel": null,
        "knlLevelName": null,
        "knlModule": "0",
        "knlModuleName": "经验案例",
        "knlProvKey": "431",
        "knlProvName": "吉林",
        "knlRemark": null,
        "knlResourceType": 27,
        "knlResourceTypeName": "BOSS系统",
        "knlSource": 4,
        "knlSourceName": "客户投诉",
        "knlSysType": 36,
        "knlSysTypeName": "融合计费",
        "knlTask": null,
        "knlType": 2,
        "knlTypeName": "日常运维类",
        "lastCheckTime": "2016-01-12 16:22:30",
        "lastChecker": null,
        "lastUpTime": "2016-01-12 16:23:50",
        "lastUpdateBy": null,
        "lastVisitTime": "2016-01-13 15:24:46",
        "lastVisitor": "yangjingyuan431",
        "originID": null,
        "problemID": null,
        "rankCount": 0,
        "replayFlag": 1,
        "score": 0,
        "searchScore": 0,
        "securityLevel": 1,
        "status": 2,
        "tag": null,
        "timeoutCount": null,
        "title": "用户对通话收取的费用有异议，要求查询",
        "url": null,
        "user": null,
        "visitCount": 1
    }, {
        "belongOrg": null,
        "content": "<p><span style=\"color: rgb(85, 85, 85);text-align: left;background-color: rgb(255, 255, 255);float: ",
        "copyID": null,
        "createBy": "guoqiutong431",
        "createOrg": "431",
        "createTime": "2016-01-12 16:23:09",
        "deadTime": null,
        "dn": null,
        "evenID": null,
        "flag": null,
        "fullname": "郭秋彤",
        "handInFlag": null,
        "isClose": null,
        "isCopy": null,
        "isFinish": null,
        "isNew": 0,
        "knlDimension": 1,
        "knlID": 1001207,
        "knlLevel": null,
        "knlLevelName": null,
        "knlModule": "0",
        "knlModuleName": "经验案例",
        "knlProvKey": "431",
        "knlProvName": "吉林",
        "knlRemark": null,
        "knlResourceType": 27,
        "knlResourceTypeName": "BOSS系统",
        "knlSource": 4,
        "knlSourceName": "客户投诉",
        "knlSysType": 32,
        "knlSysTypeName": "产品管理",
        "knlTask": null,
        "knlType": 2,
        "knlTypeName": "日常运维类",
        "lastCheckTime": "2016-01-12 16:21:49",
        "lastChecker": null,
        "lastUpTime": "2016-01-12 16:23:09",
        "lastUpdateBy": null,
        "lastVisitTime": null,
        "lastVisitor": null,
        "originID": null,
        "problemID": null,
        "rankCount": 0,
        "replayFlag": 1,
        "score": 0,
        "searchScore": 0,
        "securityLevel": 1,
        "status": 2,
        "tag": null,
        "timeoutCount": null,
        "title": "用户对优先使用哪个套餐的流量有疑问，要求解释",
        "url": null,
        "user": null,
        "visitCount": 0
    }, {
        "belongOrg": null,
        "content": "<p><span style=\"color: rgb(85, 85, 85);text-align: left;background-color: rgb(255, 255, 255);float: ",
        "copyID": null,
        "createBy": "guoqiutong431",
        "createOrg": "431",
        "createTime": "2016-01-12 16:06:34",
        "deadTime": null,
        "dn": null,
        "evenID": null,
        "flag": null,
        "fullname": "郭秋彤",
        "handInFlag": null,
        "isClose": null,
        "isCopy": null,
        "isFinish": null,
        "isNew": 0,
        "knlDimension": 1,
        "knlID": 1001206,
        "knlLevel": null,
        "knlLevelName": null,
        "knlModule": "0",
        "knlModuleName": "经验案例",
        "knlProvKey": "431",
        "knlProvName": "吉林",
        "knlRemark": null,
        "knlResourceType": 27,
        "knlResourceTypeName": "BOSS系统",
        "knlSource": 4,
        "knlSourceName": "客户投诉",
        "knlSysType": 37,
        "knlSysTypeName": "综合账务",
        "knlTask": null,
        "knlType": 2,
        "knlTypeName": "日常运维类",
        "lastCheckTime": "2016-01-12 16:05:14",
        "lastChecker": null,
        "lastUpTime": "2016-01-12 16:06:34",
        "lastUpdateBy": null,
        "lastVisitTime": "2016-01-13 15:24:49",
        "lastVisitor": "yangjingyuan431",
        "originID": null,
        "problemID": null,
        "rankCount": 0,
        "replayFlag": 1,
        "score": 0,
        "searchScore": 0,
        "securityLevel": 1,
        "status": 2,
        "tag": null,
        "timeoutCount": null,
        "title": "用户对发票折扣不认可，要求查询原因",
        "url": null,
        "user": null,
        "visitCount": 1
    }, {
        "belongOrg": null,
        "content": "<p><span style=\"color: rgb(85, 85, 85);text-align: left;background-color: rgb(255, 255, 255);float: ",
        "copyID": null,
        "createBy": "guoqiutong431",
        "createOrg": "431",
        "createTime": "2016-01-12 16:06:01",
        "deadTime": null,
        "dn": null,
        "evenID": null,
        "flag": null,
        "fullname": "郭秋彤",
        "handInFlag": null,
        "isClose": null,
        "isCopy": null,
        "isFinish": null,
        "isNew": 0,
        "knlDimension": 1,
        "knlID": 1001205,
        "knlLevel": null,
        "knlLevelName": null,
        "knlModule": "0",
        "knlModuleName": "经验案例",
        "knlProvKey": "431",
        "knlProvName": "吉林",
        "knlRemark": null,
        "knlResourceType": 27,
        "knlResourceTypeName": "BOSS系统",
        "knlSource": 4,
        "knlSourceName": "客户投诉",
        "knlSysType": 37,
        "knlSysTypeName": "综合账务",
        "knlTask": null,
        "knlType": 2,
        "knlTypeName": "日常运维类",
        "lastCheckTime": "2016-01-12 16:04:41",
        "lastChecker": null,
        "lastUpTime": "2016-01-12 16:06:01",
        "lastUpdateBy": null,
        "lastVisitTime": "2016-01-13 15:24:51",
        "lastVisitor": "yangjingyuan431",
        "originID": null,
        "problemID": null,
        "rankCount": 0,
        "replayFlag": 1,
        "score": 0,
        "searchScore": 0,
        "securityLevel": 1,
        "status": 2,
        "tag": null,
        "timeoutCount": null,
        "title": "用户通过手机银行交话费，但是得到的短信提醒不一致",
        "url": null,
        "user": null,
        "visitCount": 1
    }, {
        "belongOrg": null,
        "content": "<p><span style=\"color: rgb(85, 85, 85);text-align: left;background-color: rgb(255, 255, 255);float: ",
        "copyID": null,
        "createBy": "guoqiutong431",
        "createOrg": "431",
        "createTime": "2016-01-12 16:05:16",
        "deadTime": null,
        "dn": null,
        "evenID": null,
        "flag": null,
        "fullname": "郭秋彤",
        "handInFlag": null,
        "isClose": null,
        "isCopy": null,
        "isFinish": null,
        "isNew": 0,
        "knlDimension": 1,
        "knlID": 1001204,
        "knlLevel": null,
        "knlLevelName": null,
        "knlModule": "0",
        "knlModuleName": "经验案例",
        "knlProvKey": "431",
        "knlProvName": "吉林",
        "knlRemark": null,
        "knlResourceType": 27,
        "knlResourceTypeName": "BOSS系统",
        "knlSource": 4,
        "knlSourceName": "客户投诉",
        "knlSysType": 37,
        "knlSysTypeName": "综合账务",
        "knlTask": null,
        "knlType": 2,
        "knlTypeName": "日常运维类",
        "lastCheckTime": "2016-01-12 16:03:56",
        "lastChecker": null,
        "lastUpTime": "2016-01-12 16:05:16",
        "lastUpdateBy": null,
        "lastVisitTime": "2016-01-13 15:24:57",
        "lastVisitor": "yangjingyuan431",
        "originID": null,
        "problemID": null,
        "rankCount": 0,
        "replayFlag": 1,
        "score": 0,
        "searchScore": 0,
        "securityLevel": 1,
        "status": 2,
        "tag": null,
        "timeoutCount": null,
        "title": "客户对无法打印10月份发票不认可",
        "url": null,
        "user": null,
        "visitCount": 1
    }, {
        "belongOrg": null,
        "content": "<p><span style=\"color: rgb(85, 85, 85);text-align: left;background-color: rgb(255, 255, 255);float: ",
        "copyID": null,
        "createBy": "guoqiutong431",
        "createOrg": "431",
        "createTime": "2016-01-12 16:03:42",
        "deadTime": null,
        "dn": null,
        "evenID": null,
        "flag": null,
        "fullname": "郭秋彤",
        "handInFlag": null,
        "isClose": null,
        "isCopy": null,
        "isFinish": null,
        "isNew": 0,
        "knlDimension": 1,
        "knlID": 1001203,
        "knlLevel": null,
        "knlLevelName": null,
        "knlModule": "0",
        "knlModuleName": "经验案例",
        "knlProvKey": "431",
        "knlProvName": "吉林",
        "knlRemark": null,
        "knlResourceType": 28,
        "knlResourceTypeName": "CRM系统",
        "knlSource": 4,
        "knlSourceName": "客户投诉",
        "knlSysType": 32,
        "knlSysTypeName": "产品管理",
        "knlTask": null,
        "knlType": 2,
        "knlTypeName": "日常运维类",
        "lastCheckTime": "2016-01-12 16:02:22",
        "lastChecker": null,
        "lastUpTime": "2016-01-12 16:03:42",
        "lastUpdateBy": null,
        "lastVisitTime": null,
        "lastVisitor": null,
        "originID": null,
        "problemID": null,
        "rankCount": 0,
        "replayFlag": 1,
        "score": 0,
        "searchScore": 0,
        "securityLevel": 1,
        "status": 2,
        "tag": null,
        "timeoutCount": null,
        "title": "号码状态为网厅配送预占 现用户想要进行入网",
        "url": null,
        "user": null,
        "visitCount": 0
    }, {
        "belongOrg": null,
        "content": "<p><span style=\"color: rgb(85, 85, 85);text-align: left;background-color: rgb(255, 255, 255);float: ",
        "copyID": null,
        "createBy": "guoqiutong431",
        "createOrg": "431",
        "createTime": "2016-01-12 16:03:04",
        "deadTime": null,
        "dn": null,
        "evenID": null,
        "flag": null,
        "fullname": "郭秋彤",
        "handInFlag": null,
        "isClose": null,
        "isCopy": null,
        "isFinish": null,
        "isNew": 0,
        "knlDimension": 1,
        "knlID": 1001202,
        "knlLevel": null,
        "knlLevelName": null,
        "knlModule": "0",
        "knlModuleName": "经验案例",
        "knlProvKey": "431",
        "knlProvName": "吉林",
        "knlRemark": null,
        "knlResourceType": 27,
        "knlResourceTypeName": "BOSS系统",
        "knlSource": 4,
        "knlSourceName": "客户投诉",
        "knlSysType": 32,
        "knlSysTypeName": "产品管理",
        "knlTask": null,
        "knlType": 2,
        "knlTypeName": "日常运维类",
        "lastCheckTime": "2016-01-12 16:01:45",
        "lastChecker": null,
        "lastUpTime": "2016-01-12 16:03:04",
        "lastUpdateBy": null,
        "lastVisitTime": "2016-01-13 15:24:54",
        "lastVisitor": "yangjingyuan431",
        "originID": null,
        "problemID": null,
        "rankCount": 0,
        "replayFlag": 1,
        "score": 0,
        "searchScore": 0,
        "securityLevel": 1,
        "status": 2,
        "tag": null,
        "timeoutCount": null,
        "title": "客户反映通过中国移动官方网站查询详单时输入密码总是提示不正确",
        "url": null,
        "user": null,
        "visitCount": 1
    }, {
        "belongOrg": null,
        "content": "<p><span style=\"color: rgb(85, 85, 85);text-align: left;background-color: rgb(255, 255, 255);float: ",
        "copyID": null,
        "createBy": "guoqiutong431",
        "createOrg": "431",
        "createTime": "2016-01-12 16:02:23",
        "deadTime": null,
        "dn": null,
        "evenID": null,
        "flag": null,
        "fullname": "郭秋彤",
        "handInFlag": null,
        "isClose": null,
        "isCopy": null,
        "isFinish": null,
        "isNew": 0,
        "knlDimension": 1,
        "knlID": 1001201,
        "knlLevel": null,
        "knlLevelName": null,
        "knlModule": "0",
        "knlModuleName": "经验案例",
        "knlProvKey": "431",
        "knlProvName": "吉林",
        "knlRemark": null,
        "knlResourceType": 27,
        "knlResourceTypeName": "BOSS系统",
        "knlSource": 4,
        "knlSourceName": "客户投诉",
        "knlSysType": 36,
        "knlSysTypeName": "融合计费",
        "knlTask": null,
        "knlType": 2,
        "knlTypeName": "日常运维类",
        "lastCheckTime": "2016-01-12 16:01:03",
        "lastChecker": null,
        "lastUpTime": "2016-01-12 16:02:23",
        "lastUpdateBy": null,
        "lastVisitTime": null,
        "lastVisitor": null,
        "originID": null,
        "problemID": null,
        "rankCount": 0,
        "replayFlag": 1,
        "score": 0,
        "searchScore": 0,
        "securityLevel": 1,
        "status": 2,
        "tag": null,
        "timeoutCount": null,
        "title": "用户通过短信方式取消4G终端流量包30元(全网)业务，但查询并未取消成功",
        "url": null,
        "user": null,
        "visitCount": 0
    }]
}